IntroToR.utf8.md
…
What brands have the highest average scores?
* In this case, we want to group our data by the brand, and then summarize by average scores.
* Arrange will then help us sort them in order

```r
RawRamen %>% 
  mutate(stars = as.numeric(stars)) %>% #still need to make stars numeric first
  group_by(brand) %>% 
  summarize(AvgStars = mean(stars, na.rm = T)) %>% 
  arrange(desc(AvgStars))
```

```
## # A tibble: 456 x 2
##    brand           AvgStars
##    <chr>              <dbl>
##  1 Best Wok               5
##  2 Chitato                5
##  3 ChoripDong             5
##  4 Daddy                  5
##  5 Daifuku                5
##  6 Double Mountain        5
##  7 Foodmon                5
##  8 Fukumen                5
##  9 Hakubaku               5
## 10 Higashi                5
## # ... with 446 more rows
```
…
